<?xml version="1.0" encoding="UTF-8" standalone="no"?>
<!-- Created with Inkscape (http://www.inkscape.org/) -->
<svg
   xmlns:dc="http://purl.org/dc/elements/1.1/"
   xmlns:cc="http://web.resource.org/cc/"
   xmlns:rdf="http://www.w3.org/1999/02/22-rdf-syntax-ns#"
   xmlns:svg="http://www.w3.org/2000/svg"
   xmlns="http://www.w3.org/2000/svg"
   xmlns:xlink="http://www.w3.org/1999/xlink"
   xmlns:sodipodi="http://sodipodi.sourceforge.net/DTD/sodipodi-0.dtd"
   xmlns:inkscape="http://www.inkscape.org/namespaces/inkscape"
   width="48"
   height="48"
   id="svg2"
   sodipodi:version="0.32"
   inkscape:version="0.45"
   version="1.0"
   sodipodi:docbase="/home/lapo/Desktop/Mist/scalable/status"
   sodipodi:docname="folder-drag-accept.svg"
   inkscape:export-filename="/home/lapo/Desktop/mist-wip.png"
   inkscape:export-xdpi="90"
   inkscape:export-ydpi="90"
   inkscape:output_extension="org.inkscape.output.svg.inkscape"
   sodipodi:modified="true">
  <sodipodi:namedview
     inkscape:window-height="843"
     inkscape:window-width="1130"
     inkscape:pageshadow="2"
     inkscape:pageopacity="0.0"
     guidetolerance="10.0"
     gridtolerance="10.0"
     objecttolerance="10.0"
     borderopacity="1.0"
     bordercolor="#666666"
     pagecolor="#ffffff"
     id="base"
     showgrid="false"
     showguides="false"
     inkscape:guide-bbox="true"
     inkscape:showpageshadow="false"
     showborder="false"
     inkscape:zoom="1"
     inkscape:cx="28.516721"
     inkscape:cy="24.792395"
     inkscape:window-x="11"
     inkscape:window-y="27"
     inkscape:current-layer="layer2"
     gridspacingx="0.5px"
     gridspacingy="0.5px"
     gridempspacing="2"
     inkscape:grid-bbox="true"
     inkscape:grid-points="false">
    <sodipodi:guide
       orientation="vertical"
       position="2.9484029"
       id="guide1887" />
    <sodipodi:guide
       orientation="horizontal"
       position="41.985258"
       id="guide1891" />
    <sodipodi:guide
       orientation="horizontal"
       position="6.958231"
       id="guide1893" />
  </sodipodi:namedview>
  <defs
     id="defs4">
    <linearGradient
       inkscape:collect="always"
       id="linearGradient6076">
      <stop
         style="stop-color:#729fcf;stop-opacity:1;"
         offset="0"
         id="stop6078" />
      <stop
         style="stop-color:#729fcf;stop-opacity:0;"
         offset="1"
         id="stop6080" />
    </linearGradient>
    <linearGradient
       id="linearGradient3408">
      <stop
         id="stop3410"
         offset="0"
         style="stop-color:#eeeeec;stop-opacity:1" />
      <stop
         style="stop-color:white;stop-opacity:1;"
         offset="0.53571427"
         id="stop3414" />
      <stop
         id="stop3412"
         offset="1"
         style="stop-color:#e8eae6;stop-opacity:1;" />
    </linearGradient>
    <linearGradient
       id="linearGradient4950">
      <stop
         style="stop-color:#fcaf3e;stop-opacity:1"
         offset="0"
         id="stop4952" />
      <stop
         style="stop-color:#f57900;stop-opacity:1"
         offset="1"
         id="stop4954" />
    </linearGradient>
    <linearGradient
       id="linearGradient4944">
      <stop
         style="stop-color:#fcaf3e;stop-opacity:1"
         offset="0"
         id="stop4946" />
      <stop
         style="stop-color:#ce5c00;stop-opacity:1"
         offset="1"
         id="stop4948" />
    </linearGradient>
    <linearGradient
       inkscape:collect="always"
       id="linearGradient2885">
      <stop
         style="stop-color:white;stop-opacity:1;"
         offset="0"
         id="stop2887" />
      <stop
         style="stop-color:white;stop-opacity:0;"
         offset="1"
         id="stop2889" />
    </linearGradient>
    <linearGradient
       id="linearGradient4844">
      <stop
         style="stop-color:black;stop-opacity:1;"
         offset="0"
         id="stop4846" />
      <stop
         style="stop-color:black;stop-opacity:0;"
         offset="1"
         id="stop4848" />
    </linearGradient>
    <linearGradient
       id="linearGradient4817">
      <stop
         style="stop-color:#888a85;stop-opacity:1"
         offset="0"
         id="stop4819" />
      <stop
         style="stop-color:#555753;stop-opacity:1"
         offset="1"
         id="stop4821" />
    </linearGradient>
    <linearGradient
       id="linearGradient4809">
      <stop
         style="stop-color:#eeeeec;stop-opacity:1"
         offset="0"
         id="stop4811" />
      <stop
         style="stop-color:white;stop-opacity:1"
         offset="1"
         id="stop4813" />
    </linearGradient>
    <linearGradient
       id="linearGradient4777">
      <stop
         style="stop-color:white;stop-opacity:1;"
         offset="0"
         id="stop4779" />
      <stop
         style="stop-color:white;stop-opacity:0.30859375"
         offset="1"
         id="stop4781" />
    </linearGradient>
    <linearGradient
       id="linearGradient4717">
      <stop
         id="stop4719"
         offset="0"
         style="stop-color:#90b2d9;stop-opacity:1" />
      <stop
         id="stop4721"
         offset="1"
         style="stop-color:#3465a4;stop-opacity:1" />
    </linearGradient>
    <linearGradient
       id="linearGradient4711">
      <stop
         id="stop4713"
         offset="0"
         style="stop-color:#8fb3d9;stop-opacity:1" />
      <stop
         id="stop4715"
         offset="1"
         style="stop-color:#729fcf;stop-opacity:1" />
    </linearGradient>
    <linearGradient
       id="linearGradient4676">
      <stop
         id="stop4678"
         offset="0"
         style="stop-color:black;stop-opacity:0;" />
      <stop
         style="stop-color:black;stop-opacity:1;"
         offset="0.5"
         id="stop4682" />
      <stop
         id="stop4680"
         offset="1"
         style="stop-color:black;stop-opacity:0;" />
    </linearGradient>
    <linearGradient
       inkscape:collect="always"
       id="linearGradient4656">
      <stop
         style="stop-color:black;stop-opacity:1;"
         offset="0"
         id="stop4658" />
      <stop
         style="stop-color:black;stop-opacity:0;"
         offset="1"
         id="stop4660" />
    </linearGradient>
    <linearGradient
       inkscape:collect="always"
       id="linearGradient4602">
      <stop
         style="stop-color:white;stop-opacity:1;"
         offset="0"
         id="stop4604" />
      <stop
         style="stop-color:white;stop-opacity:0;"
         offset="1"
         id="stop4606" />
    </linearGradient>
    <linearGradient
       id="linearGradient4594">
      <stop
         style="stop-color:white;stop-opacity:1;"
         offset="0"
         id="stop4596" />
      <stop
         style="stop-color:white;stop-opacity:0.3984375"
         offset="1"
         id="stop4598" />
    </linearGradient>
    <linearGradient
       inkscape:collect="always"
       xlink:href="#linearGradient4594"
       id="linearGradient4600"
       x1="18.75"
       y1="14.171447"
       x2="18.75"
       y2="37.452229"
       gradientUnits="userSpaceOnUse" />
    <linearGradient
       inkscape:collect="always"
       xlink:href="#linearGradient4602"
       id="linearGradient4608"
       x1="16.75"
       y1="9.649169"
       x2="16.75"
       y2="14.96457"
       gradientUnits="userSpaceOnUse" />
    <linearGradient
       inkscape:collect="always"
       xlink:href="#linearGradient4711"
       id="linearGradient4616"
       x1="40.75"
       y1="24.998657"
       x2="40.75"
       y2="39.300896"
       gradientUnits="userSpaceOnUse"
       gradientTransform="translate(-137,0)" />
    <linearGradient
       inkscape:collect="always"
       xlink:href="#linearGradient4717"
       id="linearGradient4618"
       x1="13.435029"
       y1="8.2836676"
       x2="13.435029"
       y2="15.2117"
       gradientUnits="userSpaceOnUse"
       gradientTransform="translate(-137,0)" />
    <radialGradient
       inkscape:collect="always"
       xlink:href="#linearGradient4656"
       id="radialGradient4689"
       gradientUnits="userSpaceOnUse"
       gradientTransform="matrix(1.5,0,0,1,0,2.324581e-6)"
       cx="4"
       cy="39"
       fx="4"
       fy="39"
       r="4" />
    <linearGradient
       inkscape:collect="always"
       xlink:href="#linearGradient4676"
       id="linearGradient4691"
       gradientUnits="userSpaceOnUse"
       x1="19.533825"
       y1="34.998901"
       x2="19.533825"
       y2="43.004372" />
    <radialGradient
       inkscape:collect="always"
       xlink:href="#linearGradient4656"
       id="radialGradient4693"
       gradientUnits="userSpaceOnUse"
       gradientTransform="matrix(1.5,0,0,1,-48,-78)"
       cx="4"
       cy="39"
       fx="4"
       fy="39"
       r="4" />
    <radialGradient
       inkscape:collect="always"
       xlink:href="#linearGradient4656"
       id="radialGradient4739"
       gradientUnits="userSpaceOnUse"
       gradientTransform="matrix(1.5,0,0,1,0,2.324581e-6)"
       cx="4"
       cy="39"
       fx="4"
       fy="39"
       r="4" />
    <linearGradient
       inkscape:collect="always"
       xlink:href="#linearGradient4676"
       id="linearGradient4741"
       gradientUnits="userSpaceOnUse"
       x1="19.533825"
       y1="34.998901"
       x2="19.533825"
       y2="43.004372" />
    <radialGradient
       inkscape:collect="always"
       xlink:href="#linearGradient4656"
       id="radialGradient4743"
       gradientUnits="userSpaceOnUse"
       gradientTransform="matrix(1.5,0,0,1,-48,-78)"
       cx="4"
       cy="39"
       fx="4"
       fy="39"
       r="4" />
    <linearGradient
       inkscape:collect="always"
       xlink:href="#linearGradient4602"
       id="linearGradient4747"
       gradientUnits="userSpaceOnUse"
       x1="16.75"
       y1="9.1009188"
       x2="16.75"
       y2="20.23304" />
    <linearGradient
       inkscape:collect="always"
       xlink:href="#linearGradient4711"
       id="linearGradient4749"
       gradientUnits="userSpaceOnUse"
       x1="40.75"
       y1="10.099263"
       x2="40.75"
       y2="29.449654"
       gradientTransform="matrix(1,0,0,0.709677,-68,11.75806)" />
    <linearGradient
       inkscape:collect="always"
       xlink:href="#linearGradient4777"
       id="linearGradient4783"
       x1="93.072929"
       y1="19.538952"
       x2="93.072929"
       y2="37.333473"
       gradientUnits="userSpaceOnUse" />
    <linearGradient
       inkscape:collect="always"
       xlink:href="#linearGradient4809"
       id="linearGradient4815"
       x1="106.02536"
       y1="10.203551"
       x2="72.15036"
       y2="28.022842"
       gradientUnits="userSpaceOnUse"
       gradientTransform="translate(-137,0)" />
    <radialGradient
       inkscape:collect="always"
       xlink:href="#linearGradient4817"
       id="radialGradient4825"
       cx="3.2764411"
       cy="6.497252"
       fx="3.2764411"
       fy="6.497252"
       r="18"
       gradientTransform="matrix(2.038939e-2,0.520855,-2.853761,0.111868,-48.25224,8.004112)"
       gradientUnits="userSpaceOnUse" />
    <radialGradient
       inkscape:collect="always"
       xlink:href="#linearGradient4844"
       id="radialGradient4850"
       cx="25.448673"
       cy="27.216789"
       fx="25.448673"
       fy="27.216789"
       r="20"
       gradientTransform="matrix(4.504143,0,0,0.684926,-149.1481,9.358513)"
       gradientUnits="userSpaceOnUse" />
    <linearGradient
       inkscape:collect="always"
       xlink:href="#linearGradient4717"
       id="linearGradient4860"
       gradientUnits="userSpaceOnUse"
       x1="13.435029"
       y1="9.182085"
       x2="13.435029"
       y2="23.304838"
       gradientTransform="translate(-68,0)" />
    <radialGradient
       inkscape:collect="always"
       xlink:href="#linearGradient4656"
       id="radialGradient2945"
       gradientUnits="userSpaceOnUse"
       gradientTransform="matrix(1.5,0,0,1,0,2.324581e-6)"
       cx="4"
       cy="39"
       fx="4"
       fy="39"
       r="4" />
    <linearGradient
       inkscape:collect="always"
       xlink:href="#linearGradient4676"
       id="linearGradient2947"
       gradientUnits="userSpaceOnUse"
       x1="19.533825"
       y1="34.998901"
       x2="19.533825"
       y2="43.004372" />
    <radialGradient
       inkscape:collect="always"
       xlink:href="#linearGradient4656"
       id="radialGradient2949"
       gradientUnits="userSpaceOnUse"
       gradientTransform="matrix(1.5,0,0,1,-48,-78)"
       cx="4"
       cy="39"
       fx="4"
       fy="39"
       r="4" />
    <linearGradient
       inkscape:collect="always"
       xlink:href="#linearGradient4717"
       id="linearGradient2951"
       gradientUnits="userSpaceOnUse"
       gradientTransform="translate(-205,0)"
       x1="13.435029"
       y1="8.2836676"
       x2="13.435029"
       y2="15.2117" />
    <linearGradient
       inkscape:collect="always"
       xlink:href="#linearGradient4602"
       id="linearGradient2953"
       gradientUnits="userSpaceOnUse"
       x1="16.75"
       y1="9.649169"
       x2="16.75"
       y2="14.96457" />
    <linearGradient
       inkscape:collect="always"
       xlink:href="#linearGradient4711"
       id="linearGradient2955"
       gradientUnits="userSpaceOnUse"
       gradientTransform="translate(-205,0)"
       x1="40.75"
       y1="24.998657"
       x2="40.75"
       y2="39.300896" />
    <linearGradient
       inkscape:collect="always"
       xlink:href="#linearGradient4594"
       id="linearGradient2957"
       gradientUnits="userSpaceOnUse"
       x1="18.75"
       y1="14.171447"
       x2="18.75"
       y2="37.452229" />
    <radialGradient
       inkscape:collect="always"
       xlink:href="#linearGradient4656"
       id="radialGradient3158"
       gradientUnits="userSpaceOnUse"
       gradientTransform="matrix(1.5,0,0,1,0,2.324581e-6)"
       cx="4"
       cy="39"
       fx="4"
       fy="39"
       r="4" />
    <linearGradient
       inkscape:collect="always"
       xlink:href="#linearGradient4676"
       id="linearGradient3160"
       gradientUnits="userSpaceOnUse"
       x1="19.533825"
       y1="34.998901"
       x2="19.533825"
       y2="43.004372" />
    <radialGradient
       inkscape:collect="always"
       xlink:href="#linearGradient4656"
       id="radialGradient3162"
       gradientUnits="userSpaceOnUse"
       gradientTransform="matrix(1.5,0,0,1,-48,-78)"
       cx="4"
       cy="39"
       fx="4"
       fy="39"
       r="4" />
    <linearGradient
       inkscape:collect="always"
       xlink:href="#linearGradient4944"
       id="linearGradient3164"
       gradientUnits="userSpaceOnUse"
       gradientTransform="translate(-273,0)"
       x1="13.435029"
       y1="8.2836676"
       x2="13.435029"
       y2="15.2117" />
    <linearGradient
       inkscape:collect="always"
       xlink:href="#linearGradient4602"
       id="linearGradient3166"
       gradientUnits="userSpaceOnUse"
       x1="16.75"
       y1="9.649169"
       x2="16.75"
       y2="14.96457" />
    <linearGradient
       inkscape:collect="always"
       xlink:href="#linearGradient4594"
       id="linearGradient3170"
       gradientUnits="userSpaceOnUse"
       x1="18.75"
       y1="14.171447"
       x2="18.75"
       y2="37.452229" />
    <linearGradient
       inkscape:collect="always"
       xlink:href="#linearGradient4950"
       id="linearGradient5849"
       gradientUnits="userSpaceOnUse"
       gradientTransform="translate(-273,0)"
       x1="40.75"
       y1="24.998657"
       x2="40.75"
       y2="46.054234" />
    <radialGradient
       inkscape:collect="always"
       xlink:href="#linearGradient4656"
       id="radialGradient7146"
       gradientUnits="userSpaceOnUse"
       gradientTransform="matrix(1.5,0,0,1,0,2.324581e-6)"
       cx="4"
       cy="39"
       fx="4"
       fy="39"
       r="4" />
    <linearGradient
       inkscape:collect="always"
       xlink:href="#linearGradient4676"
       id="linearGradient7148"
       gradientUnits="userSpaceOnUse"
       x1="19.533825"
       y1="34.998901"
       x2="19.533825"
       y2="43.004372" />
    <radialGradient
       inkscape:collect="always"
       xlink:href="#linearGradient4656"
       id="radialGradient7150"
       gradientUnits="userSpaceOnUse"
       gradientTransform="matrix(1.5,0,0,1,-48,-78)"
       cx="4"
       cy="39"
       fx="4"
       fy="39"
       r="4" />
    <linearGradient
       inkscape:collect="always"
       xlink:href="#linearGradient4602"
       id="linearGradient7160"
       gradientUnits="userSpaceOnUse"
       x1="16.75"
       y1="9.1009188"
       x2="16.75"
       y2="20.23304" />
    <linearGradient
       inkscape:collect="always"
       xlink:href="#linearGradient4717"
       id="linearGradient7181"
       gradientUnits="userSpaceOnUse"
       x1="13.435029"
       y1="9.182085"
       x2="13.435029"
       y2="23.304838"
       gradientTransform="translate(68,0)" />
    <linearGradient
       inkscape:collect="always"
       xlink:href="#linearGradient3408"
       id="linearGradient3391"
       gradientUnits="userSpaceOnUse"
       x1="100.875"
       y1="13.11598"
       x2="100.875"
       y2="30.292231"
       gradientTransform="matrix(1,0,0,1.30202,-1,-15.07727)" />
    <radialGradient
       inkscape:collect="always"
       xlink:href="#linearGradient4817"
       id="radialGradient3393"
       gradientUnits="userSpaceOnUse"
       gradientTransform="matrix(2.038939e-2,0.678164,-2.853761,0.145654,87.7478,-4.655757)"
       cx="3.2764411"
       cy="6.497252"
       fx="3.2764411"
       fy="6.497252"
       r="18" />
    <linearGradient
       inkscape:collect="always"
       xlink:href="#linearGradient2885"
       id="linearGradient3395"
       gradientUnits="userSpaceOnUse"
       x1="75.75"
       y1="26.34203"
       x2="75.75"
       y2="39.830303"
       gradientTransform="matrix(1,0,0,1.316893,0,-15.59847)" />
    <radialGradient
       inkscape:collect="always"
       xlink:href="#linearGradient4844"
       id="radialGradient3528"
       gradientUnits="userSpaceOnUse"
       gradientTransform="matrix(4.504143,0,0,0.466995,-13.14809,18.7899)"
       cx="25.448673"
       cy="27.216789"
       fx="25.448673"
       fy="27.216789"
       r="20" />
    <linearGradient
       inkscape:collect="always"
       xlink:href="#linearGradient4711"
       id="linearGradient3530"
       gradientUnits="userSpaceOnUse"
       gradientTransform="matrix(1,0,0,0.482904,68,20.94241)"
       x1="40.75"
       y1="-0.77376097"
       x2="40.75"
       y2="25.035925" />
    <linearGradient
       inkscape:collect="always"
       xlink:href="#linearGradient4777"
       id="linearGradient3532"
       gradientUnits="userSpaceOnUse"
       x1="93.072929"
       y1="19.538952"
       x2="93.072929"
       y2="35.808075"
       gradientTransform="matrix(1,0,0,0.65032,-1,13.81236)" />
    <linearGradient
       inkscape:collect="always"
       xlink:href="#linearGradient4711"
       id="linearGradient4752"
       gradientUnits="userSpaceOnUse"
       gradientTransform="translate(136,-4)"
       x1="40.75"
       y1="24.998657"
       x2="40.75"
       y2="39.300896" />
    <linearGradient
       inkscape:collect="always"
       xlink:href="#linearGradient4717"
       id="linearGradient4756"
       gradientUnits="userSpaceOnUse"
       gradientTransform="translate(136,-4)"
       x1="13.435029"
       y1="8.2836676"
       x2="13.435029"
       y2="15.2117" />
    <linearGradient
       inkscape:collect="always"
       xlink:href="#linearGradient4594"
       id="linearGradient4763"
       gradientUnits="userSpaceOnUse"
       x1="18.75"
       y1="14.171447"
       x2="18.75"
       y2="37.452229" />
    <linearGradient
       inkscape:collect="always"
       xlink:href="#linearGradient4602"
       id="linearGradient4765"
       gradientUnits="userSpaceOnUse"
       x1="16.75"
       y1="9.649169"
       x2="16.75"
       y2="14.96457" />
    <linearGradient
       id="linearGradient158">
      <stop
         id="stop159"
         offset="0.0000000"
         style="stop-color:#686868;stop-opacity:0.0000000;" />
      <stop
         id="stop162"
         offset="0.23762377"
         style="stop-color:#686868;stop-opacity:1.0000000;" />
      <stop
         id="stop163"
         offset="0.78109992"
         style="stop-color:#686868;stop-opacity:1.0000000;" />
      <stop
         id="stop160"
         offset="1.0000000"
         style="stop-color:#686868;stop-opacity:0.0000000;" />
    </linearGradient>
    <linearGradient
       id="linearGradient272">
      <stop
         id="stop273"
         offset="0.0000000"
         style="stop-color:#474747;stop-opacity:0.0000000;" />
      <stop
         id="stop275"
         offset="0.10000000"
         style="stop-color:#474747;stop-opacity:1.0000000;" />
      <stop
         id="stop276"
         offset="0.89999998"
         style="stop-color:#474747;stop-opacity:1.0000000;" />
      <stop
         id="stop274"
         offset="1.0000000"
         style="stop-color:#474747;stop-opacity:0.0000000;" />
    </linearGradient>
    <linearGradient
       id="linearGradient178">
      <stop
         id="stop179"
         offset="0.0000000"
         style="stop-color:#ffffff;stop-opacity:0.0000000;" />
      <stop
         id="stop180"
         offset="0.10827128"
         style="stop-color:#ffffff;stop-opacity:0.70658684;" />
      <stop
         id="stop181"
         offset="0.92053902"
         style="stop-color:#ffffff;stop-opacity:0.70658684;" />
      <stop
         id="stop182"
         offset="1.0000000"
         style="stop-color:#ffffff;stop-opacity:0.0000000;" />
    </linearGradient>
    <linearGradient
       id="linearGradient204">
      <stop
         id="stop205"
         offset="0.0000000"
         style="stop-color:#7a7a7a;stop-opacity:1.0000000;" />
      <stop
         id="stop207"
         offset="0.19801980"
         style="stop-color:#c5c5c5;stop-opacity:1.0000000;" />
      <stop
         id="stop208"
         offset="0.59900987"
         style="stop-color:#626262;stop-opacity:1.0000000;" />
      <stop
         id="stop206"
         offset="1.0000000"
         style="stop-color:#888888;stop-opacity:1.0000000;" />
    </linearGradient>
    <linearGradient
       id="linearGradient218">
      <stop
         id="stop219"
         offset="0.0000000"
         style="stop-color:#ffffff;stop-opacity:0.44910181;" />
      <stop
         id="stop222"
         offset="1.0000000"
         style="stop-color:#ffffff;stop-opacity:0.0000000;" />
    </linearGradient>
    <linearGradient
       id="linearGradient264">
      <stop
         id="stop265"
         offset="0.0000000"
         style="stop-color:#000000;stop-opacity:0.50299400;" />
      <stop
         id="stop266"
         offset="1.0000000"
         style="stop-color:#000000;stop-opacity:0.0000000;" />
    </linearGradient>
    <linearGradient
       inkscape:collect="always"
       xlink:href="#linearGradient158"
       id="linearGradient5057"
       gradientUnits="userSpaceOnUse"
       gradientTransform="matrix(2.826327,0,0,0.364942,0.259612,-0.592062)"
       x1="1.6422368"
       y1="117.82710"
       x2="15.343062"
       y2="117.82710" />
    <linearGradient
       inkscape:collect="always"
       xlink:href="#linearGradient272"
       id="linearGradient5059"
       gradientUnits="userSpaceOnUse"
       gradientTransform="matrix(8.425452,0,0,0.22121,0.259612,-37.98308)"
       x1="0.61210024"
       y1="372.57819"
       x2="5.0856376"
       y2="372.57819" />
    <linearGradient
       inkscape:collect="always"
       xlink:href="#linearGradient272"
       id="linearGradient5061"
       gradientUnits="userSpaceOnUse"
       gradientTransform="matrix(8.425452,0,0,0.228621,0.259612,-36.68298)"
       x1="0.61210024"
       y1="372.57819"
       x2="5.0856376"
       y2="372.57819" />
    <linearGradient
       inkscape:collect="always"
       xlink:href="#linearGradient178"
       id="linearGradient5063"
       gradientUnits="userSpaceOnUse"
       gradientTransform="matrix(2.826327,0,0,0.147685,0.259612,24.59382)"
       x1="1.6422368"
       y1="117.82710"
       x2="15.343062"
       y2="117.82710" />
    <linearGradient
       inkscape:collect="always"
       xlink:href="#linearGradient204"
       id="linearGradient5065"
       gradientUnits="userSpaceOnUse"
       gradientTransform="matrix(0.983801,0,0,1.016466,0.416832,0.407937)"
       x1="23.100046"
       y1="38.296745"
       x2="23.100046"
       y2="43.915466" />
    <linearGradient
       inkscape:collect="always"
       xlink:href="#linearGradient218"
       id="linearGradient5067"
       gradientUnits="userSpaceOnUse"
       gradientTransform="matrix(1.138691,0,0,1.732051,-19.36456,-0.911558)"
       x1="36.373066"
       y1="22.227985"
       x2="38.105118"
       y2="22.227985" />
    <linearGradient
       inkscape:collect="always"
       xlink:href="#linearGradient264"
       id="linearGradient5069"
       gradientUnits="userSpaceOnUse"
       gradientTransform="matrix(0.730769,0,0,1.233324,2.992929,-1.320616)"
       x1="28.632685"
       y1="29.943159"
       x2="28.783722"
       y2="31.490198" />
    <linearGradient
       inkscape:collect="always"
       xlink:href="#linearGradient6076"
       id="linearGradient6082"
       x1="23.599689"
       y1="-2.4728725"
       x2="23.599689"
       y2="51.392372"
       gradientUnits="userSpaceOnUse" />
  </defs>
  <sodipodi:namedview
     id="namedview142"
     pagecolor="#ffffff"
     bordercolor="#666666"
     borderopacity="1.0"
     inkscape:pageopacity="0.0"
     inkscape:pageshadow="2"
     inkscape:zoom="1"
     inkscape:cx="10.097903"
     inkscape:cy="38.917761"
     inkscape:document-units="px"
     inkscape:current-layer="layer1"
     showgrid="false"
     gridempspacing="2"
     gridspacingx="0.5px"
     gridspacingy="0.5px"
     inkscape:window-width="965"
     inkscape:window-height="763"
     inkscape:window-x="176"
     inkscape:window-y="103"
     fill="#729fcf"
     stroke="#3465a4"
     inkscape:showpageshadow="false"
     showguides="false"
     inkscape:guide-bbox="true"
     inkscape:grid-points="true"
     inkscape:grid-bbox="false"
     showborder="true">
    <sodipodi:guide
       orientation="vertical"
       position="24.041631"
       id="guide2191" />
    <sodipodi:guide
       orientation="horizontal"
       position="25.986174"
       id="guide2203" />
  </sodipodi:namedview>
  <metadata
     id="metadata7">
    <rdf:RDF>
      <cc:Work
         rdf:about="">
        <dc:format>image/svg+xml</dc:format>
        <dc:type
           rdf:resource="http://purl.org/dc/dcmitype/StillImage" />
        <dc:creator>
          <cc:Agent>
            <dc:title>Lapo Calamandrei</dc:title>
          </cc:Agent>
        </dc:creator>
        <dc:title>Mist Folder Drag-accept</dc:title>
        <dc:subject>
          <rdf:Bag />
        </dc:subject>
        <cc:license
           rdf:resource="http://creativecommons.org/licenses/GPL/2.0/" />
        <dc:date>Aug 2006</dc:date>
      </cc:Work>
      <cc:License
         rdf:about="http://creativecommons.org/licenses/GPL/2.0/">
        <cc:permits
           rdf:resource="http://web.resource.org/cc/Reproduction" />
        <cc:permits
           rdf:resource="http://web.resource.org/cc/Distribution" />
        <cc:requires
           rdf:resource="http://web.resource.org/cc/Notice" />
        <cc:permits
           rdf:resource="http://web.resource.org/cc/DerivativeWorks" />
        <cc:requires
           rdf:resource="http://web.resource.org/cc/ShareAlike" />
        <cc:requires
           rdf:resource="http://web.resource.org/cc/SourceCode" />
      </cc:License>
    </rdf:RDF>
  </metadata>
  <g
     inkscape:groupmode="layer"
     id="layer2"
     inkscape:label="Vectors"
     style="display:inline">
    <path
       style="opacity:1;color:black;fill:url(#linearGradient6082);fill-opacity:1.0;fill-rule:nonzero;stroke:#729fcf;stroke-width:0.99999994;stroke-linecap:square;stroke-linejoin:round;marker:none;marker-start:none;marker-mid:none;marker-end:none;stroke-miterlimit:4;stroke-dasharray:none;stroke-dashoffset:1.5;stroke-opacity:1;visibility:visible;display:inline;overflow:visible"
       d="M 7.5 5.5 L 3.5 9.5 L 3.5 27.5 C 2.392 27.5 1.5 27.933692 1.5 28.46875 L 3.5 39.53125 C 3.5 40.066307 4.392 40.5 5.5 40.5 L 42.5 40.5 C 43.608 40.499999 44.5 40.066308 44.5 39.53125 L 47.5 26.5 C 47.5 25.96494 46.608 25.53125 45.5 25.53125 L 44.5 25.53125 L 44.5 11.5 C 44.5 10.392 43.608 9.5 42.5 9.5 L 23.5 9.5 L 19.5 5.5 L 7.5 5.5 z "
       id="path5842" />
    <g
       id="g5003"
       inkscape:label="pixmap"
       style="display:inline"
       transform="translate(202.8133,-4.502e-2)" />
    <g
       transform="matrix(0.186703,0,0,0.186703,181.706,57.57797)"
       id="g891" />
    <path
       sodipodi:type="inkscape:offset"
       inkscape:radius="-1"
       inkscape:original="M 7.5 5.5 L 3.5 9.5 L 3.5 27.5 C 2.392 27.5 1.5 27.933692 1.5 28.46875 L 3.5 39.53125 C 3.5 40.066307 4.392 40.5 5.5 40.5 L 42.5 40.5 C 43.608 40.499999 44.5 40.066308 44.5 39.53125 L 47.5 26.5 C 47.5 25.96494 46.608 25.53125 45.5 25.53125 L 44.5 25.53125 L 44.5 11.5 C 44.5 10.392 43.608 9.5 42.5 9.5 L 23.5 9.5 L 19.5 5.5 L 7.5 5.5 z "
       style="opacity:0.6;color:#000000;fill:none;fill-opacity:1;fill-rule:nonzero;stroke:#ffffff;stroke-width:0.99999994;stroke-linecap:square;stroke-linejoin:round;marker:none;marker-start:none;marker-mid:none;marker-end:none;stroke-miterlimit:4;stroke-dasharray:none;stroke-dashoffset:1.5;stroke-opacity:1;visibility:visible;display:inline;overflow:visible"
       id="path7061"
       d="M 7.9375,6.5 L 4.5,9.9375 L 4.5,27.5 C 4.4999448,28.052262 4.0522619,28.499945 3.5,28.5 C 3.0764729,28.5 2.7126692,28.599523 2.53125,28.6875 L 4.46875,39.34375 C 4.4807052,39.374466 4.4911346,39.405754 4.5,39.4375 C 4.4731853,39.38616 4.4260268,39.261473 4.53125,39.3125 C 4.7126694,39.400477 5.0764732,39.5 5.5,39.5 L 42.5,39.5 C 42.923528,39.5 43.287331,39.400477 43.46875,39.3125 C 43.573973,39.261473 43.526815,39.386159 43.5,39.4375 C 43.507719,39.395205 43.518157,39.353452 43.53125,39.3125 L 46.4375,26.71875 C 46.25024,26.63315 45.910359,26.53125 45.5,26.53125 L 44.5,26.53125 C 43.947738,26.531195 43.500055,26.083512 43.5,25.53125 L 43.5,11.5 C 43.5,10.928703 43.071297,10.5 42.5,10.5 L 23.5,10.5 C 23.232435,10.506199 22.973549,10.404896 22.78125,10.21875 L 19.0625,6.5 L 7.9375,6.5 z " />
  </g>
</svg>
